…
```r
income_vote_ed_freq
```

```
## # A tibble: 64 x 5
## # Groups:   income2, X_educag [32]
##              income2                                   X_educag   vote
##               <fctr>                                     <fctr> <fctr>
##  1 Less than $10,000               Did not graduate high school      0
##  2 Less than $10,000               Did not graduate high school      1
##  3 Less than $10,000                      Graduated high school      0
##  4 Less than $10,000                      Graduated high school      1
##  5 Less than $10,000       Attended college or technical school      0
##  6 Less than $10,000       Attended college or technical school      1
##  7 Less than $10,000 Graduated from college or technical school      0
##  8 Less than $10,000 Graduated from college or technical school      1
##  9 Less than $15,000               Did not graduate high school      0
## 10 Less than $15,000               Did not graduate high school      1
## # ... with 54 more rows, and 2 more variables: n <int>, freq <dbl>
```
…
