…
```
## # A tibble: 120 x 9
##        studio1     n   min    q1 median     mean    q3   max       sd
##         <fctr> <int> <dbl> <dbl>  <dbl>    <dbl> <dbl> <dbl>    <dbl>
##  1      Warner    68    11 47.75   64.0 61.55882 78.25    94 19.24266
##  2   Paramount    60    15 42.25   58.0 57.80000 76.00    97 21.40315
##  3        Sony    52    19 44.75   61.0 58.69231 72.50    91 18.35012
##  4         Fox    50    19 37.50   62.5 60.34000 79.75    95 22.26978
##  5   Universal    39    29 49.50   69.0 64.48718 80.00    95 18.17006
##  6         MGM    28    17 40.00   56.0 54.78571 71.25    84 18.63362
##  7     Miramax    25    28 49.00   61.0 61.00000 73.00    94 20.11840
##  8   Lionsgate    19    19 50.00   70.0 62.89474 78.00    92 20.19872
##  9 Buena_Vista    18    22 41.00   71.0 63.61111 81.75    92 23.44741
## 10    New_Line    17    14 35.00   63.0 54.88235 74.00    85 24.55830
## # ... with 110 more rows
```
…
